\relax 
\citation{chen2009make}
\citation{su2016effect}
\citation{he2017birank}
\citation{wang2011collaborative}
\citation{lattanzi2009affiliation}
\citation{liu2018connect}
\@writefile{toc}{\contentsline {section}{\numberline {I}\relax $\@@underline {\hbox {Introduction}}\mathsurround \z@ $\relax }{1}\protected@file@percent }
\@writefile{toc}{\contentsline {section}{\numberline {II}\relax $\@@underline {\hbox {Related Works and Background}}\mathsurround \z@ $\relax }{1}\protected@file@percent }
\@writefile{toc}{\contentsline {section}{\numberline {III}\relax $\@@underline {\hbox {System Model}}\mathsurround \z@ $\relax }{1}\protected@file@percent }
\@writefile{toc}{\contentsline {subsection}{\numberline {\unhbox \voidb@x \hbox {III-A}}Network Structure}{1}\protected@file@percent }
\@writefile{toc}{\contentsline {subsection}{\numberline {\unhbox \voidb@x \hbox {III-B}}Evolving Process}{1}\protected@file@percent }
\citation{liu2018connect}
\citation{liu2018connect}
\bibstyle{IEEEtran}
\bibdata{ref}
\bibcite{chen2009make}{1}
\bibcite{su2016effect}{2}
\bibcite{he2017birank}{3}
\bibcite{wang2011collaborative}{4}
\@writefile{toc}{\contentsline {section}{\numberline {IV}\relax $\@@underline {\hbox {Mathematical Proofs}}\mathsurround \z@ $\relax }{2}\protected@file@percent }
\@writefile{toc}{\contentsline {section}{\numberline {V}\relax $\@@underline {\hbox {Evaluation}}\mathsurround \z@ $\relax }{2}\protected@file@percent }
\@writefile{toc}{\contentsline {section}{\numberline {VI}\relax $\@@underline {\hbox {Discussion}}\mathsurround \z@ $\relax }{2}\protected@file@percent }
\@writefile{toc}{\contentsline {section}{References}{2}\protected@file@percent }
\bibcite{lattanzi2009affiliation}{5}
\bibcite{liu2018connect}{6}
